{
  "status": {
    "status_code": 1001,
    "status_desc": "Screening Details Retrieved",
    "transaction_id": "1234567890"
  },
  "categories": [
    {
      "category_name": "Gold",
      "total_seats": 100,
      "available_seats": 25,
      "booked_seats": 75,
      "filled_percentage": 75
    }
  ]
}